Prozessorentwurf/Verilog/Prozessor/ALUModule/TestBenches/dump.vcd
$date
	Mon May 29 19:04:44 2023
$end
$version
	Icarus Verilog
$end
$timescale
	1ns
$end
$scope module main_tb $end
$var wire 32 ! Ergebnis [31:0] $end
$var reg 1 " SchiebLinks $end
$var reg 5 # Stellen [4:0] $end
$var reg 32 $ Zahl [31:0] $end
$scope module Schieber $end
$var wire 32 % Ergebnis [31:0] $end
$var wire 1 " SchiebLinks $end
$var wire 5 & Stellen [4:0] $end
$var wire 32 ' Zahl [31:0] $end
$var parameter 32 ( BREITE $end
$var parameter 32 ) LOG2BREITE $end
$var reg 32 * hilfsRegister [31:0] $end
$scope begin $ivl_for_loop0 $end
$var integer 32 + i [31:0] $end
$upscope $end
$scope begin $ivl_for_loop1 $end
$var integer 32 , i [31:0] $end
$upscope $end
$upscope $end
$scope begin $ivl_for_loop2 $end
$var integer 32 - i [31:0] $end
$upscope $end
$scope begin $ivl_for_loop3 $end
$var integer 32 . i [31:0] $end
$upscope $end
$upscope $end
$enddefinitions $end
$comment Show the parameter values. $end
$dumpall
b101 )
b100000 (
$end
#0
$dumpvars
bx .
b0 -
bx ,
b0 +
b101101 *
b101101 '
b0 &
b101101 %
b101101 $
b0 #
1"
b101101 !
$end
#100
b1 -
#200
b1 +
b1011010 !
b1011010 %
b1011010 *
b10 -
b1 #
b1 &
#300
b10 +
b10110100 !
b10110100 %
b10110100 *
b11 -
b10 #
b10 &
#400
b11 +
b101101000 !
b101101000 %
b101101000 *
b100 -
b11 #
b11 &
#500
b100 +
b1011010000 !
b1011010000 %
b1011010000 *
b101 -
b100 #
b100 &
#600
b101 +
b10110100000 !
b10110100000 %
b10110100000 *
b110 -
b101 #
b101 &
#700
b110 +
b101101000000 !
b101101000000 %
b101101000000 *
b111 -
b110 #
b110 &
#800
b111 +
b1011010000000 !
b1011010000000 %
b1011010000000 *
b1000 -
b111 #
b111 &
#900
b1000 +
b10110100000000 !
b10110100000000 %
b10110100000000 *
b1001 -
b1000 #
b1000 &
#1000
b1001 +
b101101000000000 !
b101101000000000 %
b101101000000000 *
b1010 -
b1001 #
b1001 &
#1100
b1010 +
b1011010000000000 !
b1011010000000000 %
b1011010000000000 *
b1011 -
b1010 #
b1010 &
#1200
b1011 +
b10110100000000000 !
b10110100000000000 %
b10110100000000000 *
b1100 -
b1011 #
b1011 &
#1300
b1100 +
b101101000000000000 !
b101101000000000000 %
b101101000000000000 *
b1101 -
b1100 #
b1100 &
#1400
b1101 +
b1011010000000000000 !
b1011010000000000000 %
b1011010000000000000 *
b1110 -
b1101 #
b1101 &
#1500
b1110 +
b10110100000000000000 !
b10110100000000000000 %
b10110100000000000000 *
b1111 -
b1110 #
b1110 &
#1600
b1111 +
b101101000000000000000 !
b101101000000000000000 %
b101101000000000000000 *
b10000 -
b1111 #
b1111 &
#1700
b10000 +
b1011010000000000000000 !
b1011010000000000000000 %
b1011010000000000000000 *
b10001 -
b10000 #
b10000 &
#1800
b10001 +
b10110100000000000000000 !
b10110100000000000000000 %
b10110100000000000000000 *
b10010 -
b10001 #
b10001 &
#1900
b10010 +
b101101000000000000000000 !
b101101000000000000000000 %
b101101000000000000000000 *
b10011 -
b10010 #
b10010 &
#2000
b10011 +
b1011010000000000000000000 !
b1011010000000000000000000 %
b1011010000000000000000000 *
b10100 -
b10011 #
b10011 &
#2100
b10100 +
b10110100000000000000000000 !
b10110100000000000000000000 %
b10110100000000000000000000 *
b10101 -
b10100 #
b10100 &
#2200
b10101 +
b101101000000000000000000000 !
b101101000000000000000000000 %
b101101000000000000000000000 *
b10110 -
b10101 #
b10101 &
#2300
b10110 +
b1011010000000000000000000000 !
b1011010000000000000000000000 %
b1011010000000000000000000000 *
b10111 -
b10110 #
b10110 &
#2400
b10111 +
b10110100000000000000000000000 !
b10110100000000000000000000000 %
b10110100000000000000000000000 *
b11000 -
b10111 #
b10111 &
#2500
b11000 +
b101101000000000000000000000000 !
b101101000000000000000000000000 %
b101101000000000000000000000000 *
b11001 -
b11000 #
b11000 &
#2600
b11001 +
b1011010000000000000000000000000 !
b1011010000000000000000000000000 %
b1011010000000000000000000000000 *
b11010 -
b11001 #
b11001 &
#2700
b11010 +
b10110100000000000000000000000000 !
b10110100000000000000000000000000 %
b10110100000000000000000000000000 *
b11011 -
b11010 #
b11010 &
#2800
b11011 +
b1101000000000000000000000000001 !
b1101000000000000000000000000001 %
b1101000000000000000000000000001 *
b11100 -
b11011 #
b11011 &
#2900
b11100 +
b11010000000000000000000000000010 !
b11010000000000000000000000000010 %
b11010000000000000000000000000010 *
b11101 -
b11100 #
b11100 &
#3000
b11101 +
b10100000000000000000000000000101 !
b10100000000000000000000000000101 %
b10100000000000000000000000000101 *
b11110 -
b11101 #
b11101 &
#3100
b11110 +
b1000000000000000000000000001011 !
b1000000000000000000000000001011 %
b1000000000000000000000000001011 *
b11111 -
b11110 #
b11110 &
#3200
b11111 +
b10000000000000000000000000010110 !
b10000000000000000000000000010110 %
b10000000000000000000000000010110 *
b100000 -
b11111 #
b11111 &
#3300
b0 +
b101101 !
b101101 %
b101101 *
b100001 -
b0 #
b0 &
#3400
b1 +
b1011010 !
b1011010 %
b1011010 *
b100010 -
b1 #
b1 &
#3500
b10 +
b10110100 !
b10110100 %
b10110100 *
b100011 -
b10 #
b10 &
#3600
b11 +
b101101000 !
b101101000 %
b101101000 *
b100100 -
b11 #
b11 &
#3700
b100 +
b1011010000 !
b1011010000 %
b1011010000 *
b100101 -
b100 #
b100 &
#3800
b101 +
b10110100000 !
b10110100000 %
b10110100000 *
b100110 -
b101 #
b101 &
#3900
b110 +
b101101000000 !
b101101000000 %
b101101000000 *
b100111 -
b110 #
b110 &
#4000
b111 +
b1011010000000 !
b1011010000000 %
b1011010000000 *
b101000 -
b111 #
b111 &
#4100
b1000 +
b10110100000000 !
b10110100000000 %
b10110100000000 *
b101001 -
b1000 #
b1000 &
#4200
b1001 +
b101101000000000 !
b101101000000000 %
b101101000000000 *
b101010 -
b1001 #
b1001 &
#4300
b1010 +
b1011010000000000 !
b1011010000000000 %
b1011010000000000 *
b101011 -
b1010 #
b1010 &
#4400
b1011 +
b10110100000000000 !
b10110100000000000 %
b10110100000000000 *
b101100 -
b1011 #
b1011 &
#4500
b1100 +
b101101000000000000 !
b101101000000000000 %
b101101000000000000 *
b101101 -
b1100 #
b1100 &
#4600
b1101 +
b1011010000000000000 !
b1011010000000000000 %
b1011010000000000000 *
b101110 -
b1101 #
b1101 &
#4700
b1110 +
b10110100000000000000 !
b10110100000000000000 %
b10110100000000000000 *
b101111 -
b1110 #
b1110 &
#4800
b1111 +
b101101000000000000000 !
b101101000000000000000 %
b101101000000000000000 *
b110000 -
b1111 #
b1111 &
#4900
b10000 +
b1011010000000000000000 !
b1011010000000000000000 %
b1011010000000000000000 *
b110001 -
b10000 #
b10000 &
#5000
b10001 +
b10110100000000000000000 !
b10110100000000000000000 %
b10110100000000000000000 *
b110010 -
b10001 #
b10001 &
#5100
b10010 +
b101101000000000000000000 !
b101101000000000000000000 %
b101101000000000000000000 *
b110011 -
b10010 #
b10010 &
#5200
b10011 +
b1011010000000000000000000 !
b1011010000000000000000000 %
b1011010000000000000000000 *
b110100 -
b10011 #
b10011 &
#5300
b10100 +
b10110100000000000000000000 !
b10110100000000000000000000 %
b10110100000000000000000000 *
b110101 -
b10100 #
b10100 &
#5400
b10101 +
b101101000000000000000000000 !
b101101000000000000000000000 %
b101101000000000000000000000 *
b110110 -
b10101 #
b10101 &
#5500
b10110 +
b1011010000000000000000000000 !
b1011010000000000000000000000 %
b1011010000000000000000000000 *
b110111 -
b10110 #
b10110 &
#5600
b10111 +
b10110100000000000000000000000 !
b10110100000000000000000000000 %
b10110100000000000000000000000 *
b111000 -
b10111 #
b10111 &
#5700
b11000 +
b101101000000000000000000000000 !
b101101000000000000000000000000 %
b101101000000000000000000000000 *
b111001 -
b11000 #
b11000 &
#5800
b11001 +
b1011010000000000000000000000000 !
b1011010000000000000000000000000 %
b1011010000000000000000000000000 *
b111010 -
b11001 #
b11001 &
#5900
b11010 +
b10110100000000000000000000000000 !
b10110100000000000000000000000000 %
b10110100000000000000000000000000 *
b111011 -
b11010 #
b11010 &
#6000
b11011 +
b1101000000000000000000000000001 !
b1101000000000000000000000000001 %
b1101000000000000000000000000001 *
b111100 -
b11011 #
b11011 &
#6100
b11100 +
b11010000000000000000000000000010 !
b11010000000000000000000000000010 %
b11010000000000000000000000000010 *
b111101 -
b11100 #
b11100 &
#6200
b11101 +
b10100000000000000000000000000101 !
b10100000000000000000000000000101 %
b10100000000000000000000000000101 *
b111110 -
b11101 #
b11101 &
#6300
b11110 +
b1000000000000000000000000001011 !
b1000000000000000000000000001011 %
b1000000000000000000000000001011 *
b111111 -
b11110 #
b11110 &
#6400
b11111 ,
b1011010 !
b1011010 %
b1011010 *
b0 .
0"
b1000000 -
b11111 #
b11111 &
#6500
b0 ,
b101101 !
b101101 %
b101101 *
b1 .
b0 #
b0 &
#6600
b1 ,
b10000000000000000000000000010110 !
b10000000000000000000000000010110 %
b10000000000000000000000000010110 *
b10 .
b1 #
b1 &
#6700
b10 ,
b1000000000000000000000000001011 !
b1000000000000000000000000001011 %
b1000000000000000000000000001011 *
b11 .
b10 #
b10 &
#6800
b11 ,
b10100000000000000000000000000101 !
b10100000000000000000000000000101 %
b10100000000000000000000000000101 *
b100 .
b11 #
b11 &
#6900
b100 ,
b11010000000000000000000000000010 !
b11010000000000000000000000000010 %
b11010000000000000000000000000010 *
b101 .
b100 #
b100 &
#7000
b101 ,
b1101000000000000000000000000001 !
b1101000000000000000000000000001 %
b1101000000000000000000000000001 *
b110 .
b101 #
b101 &
#7100
b110 ,
b10110100000000000000000000000000 !
b10110100000000000000000000000000 %
b10110100000000000000000000000000 *
b111 .
b110 #
b110 &
#7200
b111 ,
b1011010000000000000000000000000 !
b1011010000000000000000000000000 %
b1011010000000000000000000000000 *
b1000 .
b111 #
b111 &
#7300
b1000 ,
b101101000000000000000000000000 !
b101101000000000000000000000000 %
b101101000000000000000000000000 *
b1001 .
b1000 #
b1000 &
#7400
b1001 ,
b10110100000000000000000000000 !
b10110100000000000000000000000 %
b10110100000000000000000000000 *
b1010 .
b1001 #
b1001 &
#7500
b1010 ,
b1011010000000000000000000000 !
b1011010000000000000000000000 %
b1011010000000000000000000000 *
b1011 .
b1010 #
b1010 &
#7600
b1011 ,
b101101000000000000000000000 !
b101101000000000000000000000 %
b101101000000000000000000000 *
b1100 .
b1011 #
b1011 &
#7700
b1100 ,
b10110100000000000000000000 !
b10110100000000000000000000 %
b10110100000000000000000000 *
b1101 .
b1100 #
b1100 &
#7800
b1101 ,
b1011010000000000000000000 !
b1011010000000000000000000 %
b1011010000000000000000000 *
b1110 .
b1101 #
b1101 &
#7900
b1110 ,
b101101000000000000000000 !
b101101000000000000000000 %
b101101000000000000000000 *
b1111 .
b1110 #
b1110 &
#8000
b1111 ,
b10110100000000000000000 !
b10110100000000000000000 %
b10110100000000000000000 *
b10000 .
b1111 #
b1111 &
#8100
b10000 ,
b1011010000000000000000 !
b1011010000000000000000 %
b1011010000000000000000 *
b10001 .
b10000 #
b10000 &
#8200
b10001 ,
b101101000000000000000 !
b101101000000000000000 %
b101101000000000000000 *
b10010 .
b10001 #
b10001 &
#8300
b10010 ,
b10110100000000000000 !
b10110100000000000000 %
b10110100000000000000 *
b10011 .
b10010 #
b10010 &
#8400
b10011 ,
b1011010000000000000 !
b1011010000000000000 %
b1011010000000000000 *
b10100 .
b10011 #
b10011 &
#8500
b10100 ,
b101101000000000000 !
b101101000000000000 %
b101101000000000000 *
b10101 .
b10100 #
b10100 &
#8600
b10101 ,
b10110100000000000 !
b10110100000000000 %
b10110100000000000 *
b10110 .
b10101 #
b10101 &
#8700
b10110 ,
b1011010000000000 !
b1011010000000000 %
b1011010000000000 *
b10111 .
b10110 #
b10110 &
#8800
b10111 ,
b101101000000000 !
b101101000000000 %
b101101000000000 *
b11000 .
b10111 #
b10111 &
#8900
b11000 ,
b10110100000000 !
b10110100000000 %
b10110100000000 *
b11001 .
b11000 #
b11000 &
#9000
b11001 ,
b1011010000000 !
b1011010000000 %
b1011010000000 *
b11010 .
b11001 #
b11001 &
#9100
b11010 ,
b101101000000 !
b101101000000 %
b101101000000 *
b11011 .
b11010 #
b11010 &
#9200
b11011 ,
b10110100000 !
b10110100000 %
b10110100000 *
b11100 .
b11011 #
b11011 &
#9300
b11100 ,
b1011010000 !
b1011010000 %
b1011010000 *
b11101 .
b11100 #
b11100 &
#9400
b11101 ,
b101101000 !
b101101000 %
b101101000 *
b11110 .
b11101 #
b11101 &
#9500
b11110 ,
b10110100 !
b10110100 %
b10110100 *
b11111 .
b11110 #
b11110 &
#9600
b11111 ,
b1011010 !
b1011010 %
b1011010 *
b100000 .
b11111 #
b11111 &
#9700
b0 ,
b101101 !
b101101 %
b101101 *
b100001 .
b0 #
b0 &
#9800
b1 ,
b10000000000000000000000000010110 !
b10000000000000000000000000010110 %
b10000000000000000000000000010110 *
b100010 .
b1 #
b1 &
#9900
b10 ,
b1000000000000000000000000001011 !
b1000000000000000000000000001011 %
b1000000000000000000000000001011 *
b100011 .
b10 #
b10 &
#10000
b11 ,
b10100000000000000000000000000101 !
b10100000000000000000000000000101 %
b10100000000000000000000000000101 *
b100100 .
b11 #
b11 &
#10100
b100 ,
b11010000000000000000000000000010 !
b11010000000000000000000000000010 %
b11010000000000000000000000000010 *
b100101 .
b100 #
b100 &
#10200
b101 ,
b1101000000000000000000000000001 !
b1101000000000000000000000000001 %
b1101000000000000000000000000001 *
b100110 .
b101 #
b101 &
#10300
b110 ,
b10110100000000000000000000000000 !
b10110100000000000000000000000000 %
b10110100000000000000000000000000 *
b100111 .
b110 #
b110 &
#10400
b111 ,
b1011010000000000000000000000000 !
b1011010000000000000000000000000 %
b1011010000000000000000000000000 *
b101000 .
b111 #
b111 &
#10500
b1000 ,
b101101000000000000000000000000 !
b101101000000000000000000000000 %
b101101000000000000000000000000 *
b101001 .
b1000 #
b1000 &
#10600
b1001 ,
b10110100000000000000000000000 !
b10110100000000000000000000000 %
b10110100000000000000000000000 *
b101010 .
b1001 #
b1001 &
#10700
b1010 ,
b1011010000000000000000000000 !
b1011010000000000000000000000 %
b1011010000000000000000000000 *
b101011 .
b1010 #
b1010 &
#10800
b1011 ,
b101101000000000000000000000 !
b101101000000000000000000000 %
b101101000000000000000000000 *
b101100 .
b1011 #
b1011 &
#10900
b1100 ,
b10110100000000000000000000 !
b10110100000000000000000000 %
b10110100000000000000000000 *
b101101 .
b1100 #
b1100 &
#11000
b1101 ,
b1011010000000000000000000 !
b1011010000000000000000000 %
b1011010000000000000000000 *
b101110 .
b1101 #
b1101 &
#11100
b1110 ,
b101101000000000000000000 !
b101101000000000000000000 %
b101101000000000000000000 *
b101111 .
b1110 #
b1110 &
#11200
b1111 ,
b10110100000000000000000 !
b10110100000000000000000 %
b10110100000000000000000 *
b110000 .
b1111 #
b1111 &
#11300
b10000 ,
b1011010000000000000000 !
b1011010000000000000000 %
b1011010000000000000000 *
b110001 .
b10000 #
b10000 &
#11400
b10001 ,
b101101000000000000000 !
b101101000000000000000 %
b101101000000000000000 *
b110010 .
b10001 #
b10001 &
#11500
b10010 ,
b10110100000000000000 !
b10110100000000000000 %
b10110100000000000000 *
b110011 .
b10010 #
b10010 &
#11600
b10011 ,
b1011010000000000000 !
b1011010000000000000 %
b1011010000000000000 *
b110100 .
b10011 #
b10011 &
#11700
b10100 ,
b101101000000000000 !
b101101000000000000 %
b101101000000000000 *
b110101 .
b10100 #
b10100 &
#11800
b10101 ,
b10110100000000000 !
b10110100000000000 %
b10110100000000000 *
b110110 .
b10101 #
b10101 &
#11900
b10110 ,
b1011010000000000 !
b1011010000000000 %
b1011010000000000 *
b110111 .
b10110 #
b10110 &
#12000
b10111 ,
b101101000000000 !
b101101000000000 %
b101101000000000 *
b111000 .
b10111 #
b10111 &
#12100
b11000 ,
b10110100000000 !
b10110100000000 %
b10110100000000 *
b111001 .
b11000 #
b11000 &
#12200
b11001 ,
b1011010000000 !
b1011010000000 %
b1011010000000 *
b111010 .
b11001 #
b11001 &
#12300
b11010 ,
b101101000000 !
b101101000000 %
b101101000000 *
b111011 .
b11010 #
b11010 &
#12400
b11011 ,
b10110100000 !
b10110100000 %
b10110100000 *
b111100 .
b11011 #
b11011 &
#12500
b11100 ,
b1011010000 !
b1011010000 %
b1011010000 *
b111101 .
b11100 #
b11100 &
#12600
b11101 ,
b101101000 !
b101101000 %
b101101000 *
b111110 .
b11101 #
b11101 &
#12700
b11110 ,
b10110100 !
b10110100 %
b10110100 *
b111111 .
b11110 #
b11110 &
#12800
b11111 ,
b1011010 !
b1011010 %
b1011010 *
b1000000 .
b11111 #
b11111 &
