Prozessorentwurf/Verilog/Prozessor/Testbenches/dump.vcd
$date
	Thu Jul 13 19:02:21 2023
$end
$version
	Icarus Verilog
$end
$timescale
	1ns
$end
$scope module main_tb $end
$var wire 32 ! Ergebnis [31:0] $end
$var parameter 32 " DURATION $end
$var reg 6 # Add [5:0] $end
$var reg 6 $ Adds [5:0] $end
$var reg 6 % And [5:0] $end
$var reg 6 & Ce [5:0] $end
$var reg 6 ' Cg [5:0] $end
$var reg 6 ( Cge [5:0] $end
$var reg 6 ) Cl [5:0] $end
$var reg 6 * Cle [5:0] $end
$var reg 1 + Clock $end
$var reg 6 , Cne [5:0] $end
$var reg 32 - Daten1 [31:0] $end
$var reg 32 . Daten2 [31:0] $end
$var reg 6 / Div [5:0] $end
$var reg 6 0 Divs [5:0] $end
$var reg 6 1 FunktionsCode [5:0] $end
$var reg 6 2 Mod [5:0] $end
$var reg 6 3 Mods [5:0] $end
$var reg 6 4 Mul [5:0] $end
$var reg 6 5 Muls [5:0] $end
$var reg 6 6 Not [5:0] $end
$var reg 6 7 Or [5:0] $end
$var reg 1 8 Reset $end
$var reg 1 9 Schreibsignal $end
$var reg 6 : Sl [5:0] $end
$var reg 6 ; Slc [5:0] $end
$var reg 6 < Sqrt [5:0] $end
$var reg 6 = Sqrts [5:0] $end
$var reg 6 > Sr [5:0] $end
$var reg 6 ? Src [5:0] $end
$var reg 1 @ StartSignal $end
$var reg 6 A Sub [5:0] $end
$var reg 6 B Subs [5:0] $end
$var reg 6 C Xnor [5:0] $end
$var reg 6 D Xor [5:0] $end
$scope module Alu $end
$var wire 1 + Clock $end
$var wire 32 E Daten1 [31:0] $end
$var wire 32 F Daten2 [31:0] $end
$var wire 6 G FunktionsCode [5:0] $end
$var wire 1 8 Reset $end
$var wire 1 9 Schreibsignal $end
$var wire 1 @ StartSignal $end
$var wire 32 H ZyklischerSchieberErgebnis [31:0] $end
$var wire 1 I WurzelFertig $end
$var wire 32 J WurzelErgebnis [31:0] $end
$var wire 1 K DivisionNichtFertig $end
$var wire 1 L DivisionFertig $end
$var wire 32 M DivisionErgebnis [31:0] $end
$var reg 32 N EinfacheRechnungErgebnis [31:0] $end
$var reg 32 O Ergebnis [31:0] $end
$var reg 32 P Radikand [31:0] $end
$var reg 1 Q Test $end
$var reg 1 R wb_STB_TEST $end
$var integer 32 S test_zahler [31:0] $end
$scope module DivisionsModule $end
$var wire 1 + i_clk $end
$var wire 1 8 i_rst $end
$var wire 1 Q i_wb4s_cyc $end
$var wire 64 T i_wb4s_data [63:0] $end
$var wire 1 R i_wb4s_stb $end
$var wire 2 U i_wb4s_tgc [1:0] $end
$var wire 1 L o_wb4s_ack $end
$var wire 32 V o_wb4s_data [31:0] $end
$var wire 1 K o_wb4s_stall $end
$var wire 1 W s_initiate $end
$var wire 1 X s_iterate $end
$var wire 64 Y w_two_minus_divisor [63:0] $end
$var wire 32 Z w_result_mag [31:0] $end
$var wire 32 [ w_result [31:0] $end
$var wire 64 \ w_multiplier [63:0] $end
$var wire 64 ] w_lut_value [63:0] $end
$var wire 1 ^ w_less_than $end
$var wire 1 _ w_equal_factors $end
$var wire 1 ` w_divisor_zero $end
$var wire 1 a w_divisor_is_one $end
$var wire 1 b w_divisor_is_neg_one $end
$var wire 64 c w_divisor_acc [63:0] $end
$var wire 32 d w_divisor [31:0] $end
$var wire 64 e w_dividend_acc [63:0] $end
$var wire 32 f w_dividend [31:0] $end
$var wire 1 g w_converged $end
$var wire 1 h w_ceil $end
$var parameter 32 i L_ARRAY_HIGH $end
$var parameter 32 j L_FACTOR1_LSB $end
$var parameter 32 k L_FACTOR1_MSB $end
$var parameter 32 l L_LUT_MSB $end
$var parameter 32 m L_MUL_FACTORS_MSB $end
$var parameter 32 n L_NINE_NIBLES $end
$var parameter 64 o L_NUMBER_TWO_EXT $end
$var parameter 32 p L_ONE_TENGTH $end
$var parameter 32 q L_PRODUCT_MSB $end
$var parameter 32 r L_QUO_LIMIT $end
$var parameter 32 s L_REM_LIMIT $end
$var parameter 32 t L_STEP_PRODUCT_LSB $end
$var parameter 32 u L_TWOS_LEADING_ZEROS $end
$var parameter 32 v P_GDIV_FACTORS_MSB $end
$var parameter 32 w P_GDIV_FRAC_LENGTH $end
$var parameter 32 x P_GDIV_ROUND_LVL $end
$var reg 32 y r_1step_result [31:0] $end
$var reg 1 z r_ack $end
$var reg 1 { r_calc_remainder $end
$var reg 8 | r_div_step [7:0] $end
$var reg 32 } r_divisor [31:0] $end
$var reg 32 ~ r_lut_value [31:0] $end
$var reg 1 !" r_neg_result $end
$var reg 96 "" r_product0 [95:0] $end
$var reg 96 #" r_product1 [95:0] $end
$var reg 1 $" r_rem_zero $end
$var reg 1 %" r_stall $end
$var integer 32 &" iter [31:0] $end
$scope function F_ARRAY_HIGH $end
$upscope $end
$scope function F_EE_LUT $end
$upscope $end
$scope function F_TWO_EE $end
$upscope $end
$scope begin Dividen_Multiplication_Process $end
$upscope $end
$scope begin Divider_Accumulator_Process $end
$upscope $end
$scope begin Division_Step_Process $end
$upscope $end
$scope begin Divisor_Multiplication_Process $end
$upscope $end
$scope begin EE_LUT_Entry_Select $end
$upscope $end
$upscope $end
$scope module QuadratModul $end
$var wire 1 + Clock $end
$var wire 32 '" Num_in [31:0] $end
$var wire 1 8 Reset $end
$var reg 1 I Done $end
$var reg 32 (" Sq_root [31:0] $end
$var reg 32 )" a [31:0] $end
$var reg 18 *" left [17:0] $end
$var reg 16 +" q [15:0] $end
$var reg 18 ," r [17:0] $end
$var reg 18 -" right [17:0] $end
$var integer 32 ." i [31:0] $end
$upscope $end
$scope module Schieber $end
$var wire 32 /" Ergebnis [31:0] $end
$var wire 1 0" SchiebRechts $end
$var wire 5 1" Stellen [4:0] $end
$var wire 32 2" Zahl [31:0] $end
$var parameter 32 3" BREITE $end
$var parameter 32 4" LOG2BREITE $end
$var reg 32 5" hilfsRegister [31:0] $end
$scope begin $ivl_for_loop0 $end
$var integer 32 6" i [31:0] $end
$upscope $end
$scope begin $ivl_for_loop1 $end
$var integer 32 7" i [31:0] $end
$upscope $end
$upscope $end
$upscope $end
$upscope $end
$enddefinitions $end
$comment Show the parameter values. $end
$dumpall
b101 4"
b100000 3"
b11 x
b100000 w
b11111 v
b11110 u
b100000 t
b111 s
b101 r
b1011111 q
b11001100110011001100110011001 p
b1000000000000000000000000000000000 o
b111 n
b111111 m
b11111 l
b111111 k
b100000 j
b1001 i
b1010 "
$end
#0
$dumpvars
bx 7"
bx 6"
bx 5"
bx 2"
bx 1"
x0"
bx /"
b0 ."
b0 -"
b0 ,"
b0 +"
b0 *"
b0 )"
b0 ("
bx '"
bx &"
x%"
x$"
bx #"
bx ""
x!"
b11001100110011001100110011001 ~
bx }
bx |
x{
xz
bx y
xh
xg
bx f
bx e
bx d
bx c
xb
xa
x`
x_
x^
b11001100110011001100110011001 ]
bx \
bx [
bx Z
bx Y
xX
0W
bx V
bx0 U
bx T
bx S
0R
0Q
bx P
bx O
bx N
bx M
xL
xK
b0 J
0I
bx H
bx G
bx F
bx E
b11011 D
b11100 C
b100001 B
b1 A
0@
b1001 ?
b111 >
b100101 =
b11 <
b1000 ;
b110 :
09
18
b11010 7
b11000 6
b100010 5
b10 4
b100100 3
b101 2
bx 1
b100011 0
b100 /
bx .
bx -
b10001 ,
0+
b10101 *
b10100 )
b10011 (
b10010 '
b10000 &
b11001 %
b100000 $
b0 #
bx !
$end
#980
bx0 |
0$"
0!"
0{
b0 y
b0 }
0L
0z
0K
0X
0%"
1+
#1000
19
#1500
b10000000010000001111111111111111 N
0^
b100 ]
b100 ~
0a
0b
b1010 6"
b1010101010101010101010101010101 H
b1010101010101010101010101010101 /"
b1010101010101010101010101010101 5"
b101010111010111010101010101010 d
0`
0_
b1010101010101010101010101010101 f
00"
b0 U
b1010 1"
b0 7"
b1010 &"
1@
b0 1
b0 G
b101010111010111010101010101010 .
b101010111010111010101010101010 F
b10101011101011101010101010101001010101010101010101010101010101 T
b1010101010101010101010101010101 -
b1010101010101010101010101010101 E
b1010101010101010101010101010101 2"
08
#1980
0+
#2000
09
#2980
0g
b1 |
b0x +"
bx ,"
b0xx *"
b1 -"
b1 ."
bx00 )"
1+
#3000
b10000000010000001111111111111111 !
b10000000010000001111111111111111 O
19
#3500
b101010011010011010101010101011 N
b1010 7"
b1010101010101010101010101010101 H
b1010101010101010101010101010101 /"
b1010101010101010101010101010101 5"
10"
b10 U
1@
b1 1
b1 G
#3980
0+
#4000
09
#4980
b0xx +"
bx0000 )"
bx *"
b0xx1 -"
b10 ."
1+
#5000
b101010011010011010101010101011 !
b101010011010011010101010101011 O
19
#5500
b111000111000101001110001110010 N
b1010 &"
b1101000110110111000 ]
b1101000110110111000 ~
b1010 6"
b10101010101010 d
b10101010101010101 f
00"
b0 U
b1010 7"
b101010101010101010000000000 H
b101010101010101010000000000 /"
b101010101010101010000000000 5"
1@
b10 1
b10 G
b10101010101010 .
b10101010101010 F
b1010101010101000000000000000010101010101010101 T
b10101010101010101 -
b10101010101010101 E
b10101010101010101 2"
#5980
0+
#6000
09
#6980
b0xxx +"
bx000000 )"
b0xxx1 -"
b11 ."
1+
#7000
b111000111000101001110001110010 !
b111000111000101001110001110010 O
19
#7500
b11000000000110010101010101010101 P
b11000000000110010101010101010101 '"
b1010 7"
b111111111001101010101010101011 f
10"
b10 U
b1010 6"
b1010101011100000000011001010101 H
b1010101011100000000011001010101 /"
b1010101011100000000011001010101 5"
1@
b11 1
b11 G
b1010101010101011000000000110010101010101010101 T
b11000000000110010101010101010101 -
b11000000000110010101010101010101 E
b11000000000110010101010101010101 2"
#7980
0+
#8000
09
#8980
b0xxxx +"
bx00000000 )"
b0xxxx1 -"
b100 ."
1+
#9000
b0 !
b0 O
19
#9980
0+
#10000
09
#10980
b0xxxxx +"
bx0000000000 )"
b0xxxxx1 -"
b101 ."
1+
#11000
19
#11980
0+
#12000
09
#12980
b0xxxxxx +"
bx000000000000 )"
b0xxxxxx1 -"
b110 ."
1+
#13000
19
#13980
0+
#14000
09
#14980
b0xxxxxxx +"
bx00000000000000 )"
b0xxxxxxx1 -"
b111 ."
1+
#15000
19
#15980
0+
#16000
09
#16980
b0xxxxxxxx +"
bx0000000000000000 )"
b0xxxxxxxx1 -"
b1000 ."
1+
#17000
19
#17980
0+
#18000
09
#18980
b0xxxxxxxxx +"
bx000000000000000000 )"
b0xxxxxxxxx1 -"
b1001 ."
1+
#19000
19
#19980
0+
#20000
09
#20980
b0xxxxxxxxxx +"
bx00000000000000000000 )"
b0xxxxxxxxxx1 -"
b1010 ."
1+
#21000
19
#21980
0+
#22000
09
#22980
b0xxxxxxxxxxx +"
bx0000000000000000000000 )"
b0xxxxxxxxxxx1 -"
b1011 ."
1+
#23000
19
#23980
0+
#24000
09
#24980
b0xxxxxxxxxxxx +"
bx000000000000000000000000 )"
b0xxxxxxxxxxxx1 -"
b1100 ."
1+
#25000
19
#25980
0+
#26000
09
#26980
b0xxxxxxxxxxxxx +"
bx00000000000000000000000000 )"
b0xxxxxxxxxxxxx1 -"
b1101 ."
1+
#27000
19
#27980
0+
#28000
09
#28980
b0xxxxxxxxxxxxxx +"
bx0000000000000000000000000000 )"
b0xxxxxxxxxxxxxx1 -"
b1110 ."
1+
#29000
19
#29980
0+
#30000
09
#30980
b0xxxxxxxxxxxxxxx +"
bx000000000000000000000000000000 )"
b0xxxxxxxxxxxxxxx1 -"
b1111 ."
1+
#31000
19
#31980
0+
#32000
09
#32980
b0xxxxxxxxxxxxxxxx J
b0xxxxxxxxxxxxxxxx ("
1I
b0 ,"
b0 *"
b0 +"
b0 )"
b0 -"
b0 ."
1+
#33000
b0xxxxxxxxxxxxxxxx !
b0xxxxxxxxxxxxxxxx O
19
#33980
0+
#34000
09
#34980
0I
b1 +"
b10 ,"
b11 *"
b1 -"
b1 ."
b11001010101010101010100 )"
1+
#35000
19
#35980
0+
#36000
09
#36980
b11 +"
b11 ,"
b1100101010101010101010000 )"
b1000 *"
b101 -"
b10 ."
1+
#37000
19
#37980
0+
#38000
09
#38980
b110 +"
b111111111111111111 ,"
b110010101010101010101000000 )"
b1100 *"
b1101 -"
b11 ."
1+
#39000
19
#39500
b1100101010101010101010000000 N
b1010 &"
b11001100110011001100110011001 ]
b11001100110011001100110011001 ~
b111 6"
b111 d
b110111111001101010101010101011 f
00"
b0 U
b111 1"
b1010 7"
b1100101010101010101011100100 H
b1100101010101010101011100100 /"
b1100101010101010101011100100 5"
1@
b110 1
b110 G
b111 .
b111 F
b11111001000000110010101010101010101 T
b11001000000110010101010101010101 -
b11001000000110010101010101010101 E
b11001000000110010101010101010101 2"
#39980
0+
#40000
09
#40980
b1101 +"
b10111 ,"
b11001010101010101010100000000 )"
b111111111111111100 *"
b11011 -"
b100 ."
1+
#41000
b1100101010101010101010000000 !
b1100101010101010101010000000 O
19
#41500
b1100100000011001010101010 N
b111 7"
b10101011100100000011001010101010 H
b10101011100100000011001010101010 /"
b10101011100100000011001010101010 5"
10"
b10 U
1@
b111 1
b111 G
#41980
0+
#42000
09
#42980
b11011 +"
b100111 ,"
b1100101010101010101010000000000 )"
b1011100 *"
b110101 -"
b101 ."
1+
#43000
b1100100000011001010101010 !
b1100100000011001010101010 O
19
#43500
b111 6"
b1100101010101010101011100100 H
b1100101010101010101011100100 /"
b1100101010101010101011100100 5"
00"
b0 U
1@
b1000 1
b1000 G
#43980
0+
#44000
09
#44980
b110111 +"
b110000 ,"
b10010101010101010101000000000000 )"
b10011101 *"
b1101101 -"
b110 ."
1+
#45000
b1100101010101010101011100100 !
b1100101010101010101011100100 O
19
#45500
b111 7"
b10101011100100000011001010101010 H
b10101011100100000011001010101010 /"
b10101011100100000011001010101010 5"
10"
b10 U
1@
b1001 1
b1001 G
#45980
0+
#46000
09
#46980
b1101110 +"
b111111111111100101 ,"
b1010101010101010100000000000000 )"
b11000010 *"
b11011101 -"
b111 ."
1+
#47000
b10101011100100000011001010101010 !
b10101011100100000011001010101010 O
19
#47500
b0 N
b111 6"
b1100101010101010101011100100 H
b1100101010101010101011100100 /"
b1100101010101010101011100100 5"
00"
b0 U
1@
b10000 1
b10000 G
#47980
0+
#48000
09
#48980
b11011101 +"
b101010000 ,"
b1010101010101010000000000000000 )"
b111111111110010101 *"
b110111011 -"
b1000 ."
1+
#49000
b0 !
b0 O
19
#49500
b1 N
0^
b100 ]
b100 ~
b1010 &"
b10101 6"
b10101010101110010000001100101010 H
b10101010101110010000001100101010 /"
b10101010101110010000001100101010 5"
b110111111001101010101010101011 d
1_
b10101 1"
1@
b1100100000011001010101010101010111001000000110010101010101010101 T
b11001000000110010101010101010101 .
b11001000000110010101010101010101 F
#49980
0+
#50000
09
#50980
b110111011 +"
b111001100 ,"
b1010101010101000000000000000000 )"
b10101000001 *"
b1101110101 -"
b1001 ."
1+
#51000
b1 !
b1 O
19
#51500
0^
b1010 &"
b11001100110011001100110011001 ]
b11001100110011001100110011001 ~
b111 7"
b10101011100100000011001010101010 H
b10101011100100000011001010101010 /"
b10101011100100000011001010101010 5"
b111 d
0_
10"
b10 U
b111 1"
1@
b10001 1
b10001 G
b11111001000000110010101010101010101 T
b111 .
b111 F
#51980
0+
#52000
09
#52980
b1101110111 +"
b1000100 ,"
b1010101010100000000000000000000 )"
b11100110001 *"
b11011101101 -"
b1010 ."
1+
#53000
19
#53500
b0 N
0^
b100 ]
b100 ~
b1010 &"
b10101 7"
b11001010101010101010111001000000 H
b11001010101010101010111001000000 /"
b11001010101010101010111001000000 5"
b110111111001101010101010101011 d
1_
b10101 1"
1@
b1100100000011001010101010101010111001000000110010101010101010101 T
b11001000000110010101010101010101 .
b11001000000110010101010101010101 F
#53980
0+
#54000
09
#54980
b11011101110 +"
b111111001100110100 ,"
b1010101010000000000000000000000 )"
b100010001 *"
b110111011101 -"
b1011 ."
1+
#55000
b0 !
b0 O
19
#55500
b1 N
0^
b1010 &"
b11001100110011001100110011001 ]
b11001100110011001100110011001 ~
b111 6"
b111 d
b1001000000110010101010101010101 f
0_
00"
b0 U
b111 1"
b10101 7"
b1100101010101010101010100100 H
b1100101010101010101010100100 /"
b1100101010101010101010100100 5"
1@
b10010 1
b10010 G
b111 .
b111 F
b11101001000000110010101010101010101 T
b1001000000110010101010101010101 -
b1001000000110010101010101010101 E
b1001000000110010101010101010101 2"
#55980
0+
#56000
09
#56980
b110111011100 +"
b111110100010001100 ,"
b1010101000000000000000000000000 )"
b111100110011010001 *"
b1101110111011 -"
b1100 ."
1+
#57000
b1 !
b1 O
19
#57500
b0 N
1^
b100 ]
b100 ~
b1010 &"
b1001000000110010101010101010101 d
b111 f
b10101 1"
b10101 6"
b111000000000000000000000 H
b111000000000000000000000 /"
b111000000000000000000000 5"
1@
b1001000000110010101010101010101 .
b1001000000110010101010101010101 F
b100100000011001010101010101010100000000000000000000000000000111 T
b111 -
b111 E
b111 2"
#57980
0+
#58000
09
#58980
b1101110111000 +"
b111101100110100100 ,"
b1010100000000000000000000000000 )"
b111010001000110001 *"
b11011101110011 -"
b1101 ."
1+
#59000
b0 !
b0 O
19
#59500
b1010 &"
b100 ]
b100 ~
0^
b110111111001101010101010101011 d
1_
b110111111001101010101010101011 f
b10101 6"
b10101010101110010000001100101010 H
b10101010101110010000001100101010 /"
b10101010101110010000001100101010 5"
1@
b11001000000110010101010101010101 .
b11001000000110010101010101010101 F
b1100100000011001010101010101010111001000000110010101010101010101 T
b11001000000110010101010101010101 -
b11001000000110010101010101010101 E
b11001000000110010101010101010101 2"
#59980
0+
#60000
09
#60980
b11011101110000 +"
b111101010101110100 ,"
b1010000000000000000000000000000 )"
b110110011010010001 *"
b110111011100011 -"
b1110 ."
1+
#61000
19
#61500
b1 N
0^
b1010 &"
b11001100110011001100110011001 ]
b11001100110011001100110011001 ~
b111 7"
b111 d
b1001000000110010101010101010101 f
0_
10"
b10 U
b111 1"
b10101 6"
b10101010100100000011001010101010 H
b10101010100100000011001010101010 /"
b10101010100100000011001010101010 5"
1@
b10011 1
b10011 G
b111 .
b111 F
b11101001000000110010101010101010101 T
b1001000000110010101010101010101 -
b1001000000110010101010101010101 E
b1001000000110010101010101010101 2"
#61980
0+
#62000
09
#62980
b110111011100001 +"
b11001110010100 ,"
b1000000000000000000000000000000 )"
b110101010111010001 *"
b1101110111000011 -"
b1111 ."
1+
#63000
b1 !
b1 O
19
#63500
b0 N
1^
b100 ]
b100 ~
b1010 &"
b1001000000110010101010101010101 d
b111 f
b10101 1"
b10101 7"
b11100000000000 H
b11100000000000 /"
b11100000000000 5"
1@
b1001000000110010101010101010101 .
b1001000000110010101010101010101 F
b100100000011001010101010101010100000000000000000000000000000111 T
b111 -
b111 E
b111 2"
#63980
0+
#64000
09
#64980
b1101110111000010 J
b1101110111000010 ("
1I
b0 +"
b0 ,"
b0 )"
b0 *"
b0 -"
b0 ."
1+
#65000
b0 !
b0 O
19
#65500
b1 N
b1010 &"
b100 ]
b100 ~
0^
b110111111001101010101010101011 d
1_
b110111111001101010101010101011 f
b10101 7"
b11001010101010101010111001000000 H
b11001010101010101010111001000000 /"
b11001010101010101010111001000000 5"
1@
b11001000000110010101010101010101 .
b11001000000110010101010101010101 F
b1100100000011001010101010101010111001000000110010101010101010101 T
b11001000000110010101010101010101 -
b11001000000110010101010101010101 E
b11001000000110010101010101010101 2"
#65980
0+
#66000
09
#66980
0I
b1 +"
b10 ,"
b11 *"
b1 -"
b1 ."
b11001010101010101010100 )"
1+
#67000
b1 !
b1 O
19
#67500
b0 N
0^
b1010 &"
b11001100110011001100110011001 ]
b11001100110011001100110011001 ~
b111 6"
b111 d
b1001000000110010101010101010101 f
0_
00"
b0 U
b111 1"
b10101 7"
b1100101010101010101010100100 H
b1100101010101010101010100100 /"
b1100101010101010101010100100 5"
1@
b10100 1
b10100 G
b111 .
b111 F
b11101001000000110010101010101010101 T
b1001000000110010101010101010101 -
b1001000000110010101010101010101 E
b1001000000110010101010101010101 2"
#67980
0+
#68000
09
#68980
b11 +"
b11 ,"
b1100101010101010101010000 )"
b1000 *"
b101 -"
b10 ."
1+
#69000
b0 !
b0 O
19
#69500
b1 N
1^
b100 ]
b100 ~
b1010 &"
b1001000000110010101010101010101 d
b111 f
b10101 1"
b10101 6"
b111000000000000000000000 H
b111000000000000000000000 /"
b111000000000000000000000 5"
1@
b1001000000110010101010101010101 .
b1001000000110010101010101010101 F
b100100000011001010101010101010100000000000000000000000000000111 T
b111 -
b111 E
b111 2"
#69980
0+
#70000
09
#70980
b110 +"
b111111111111111111 ,"
b110010101010101010101000000 )"
b1100 *"
b1101 -"
b11 ."
1+
#71000
b1 !
b1 O
19
#71500
b0 N
b1010 &"
b100 ]
b100 ~
0^
b110111111001101010101010101011 d
1_
b110111111001101010101010101011 f
b10101 6"
b10101010101110010000001100101010 H
b10101010101110010000001100101010 /"
b10101010101110010000001100101010 5"
1@
b11001000000110010101010101010101 .
b11001000000110010101010101010101 F
b1100100000011001010101010101010111001000000110010101010101010101 T
b11001000000110010101010101010101 -
b11001000000110010101010101010101 E
b11001000000110010101010101010101 2"
#71980
0+
#72000
09
#72980
b1101 +"
b10111 ,"
b11001010101010101010100000000 )"
b111111111111111100 *"
b11011 -"
b100 ."
1+
#73000
b0 !
b0 O
19
#73500
0^
b1010 &"
b11001100110011001100110011001 ]
b11001100110011001100110011001 ~
b111 7"
b111 d
b1001000000110010101010101010101 f
0_
10"
b10 U
b111 1"
b10101 6"
b10101010100100000011001010101010 H
b10101010100100000011001010101010 /"
b10101010100100000011001010101010 5"
1@
b10101 1
b10101 G
b111 .
b111 F
b11101001000000110010101010101010101 T
b1001000000110010101010101010101 -
b1001000000110010101010101010101 E
b1001000000110010101010101010101 2"
#73980
0+
#74000
09
#74980
b11011 +"
b100111 ,"
b1100101010101010101010000000000 )"
b1011100 *"
b110101 -"
b101 ."
1+
#75000
19
#75500
b1 N
1^
b100 ]
b100 ~
b1010 &"
b1001000000110010101010101010101 d
b111 f
b10101 1"
b10101 7"
b11100000000000 H
b11100000000000 /"
b11100000000000 5"
1@
b1001000000110010101010101010101 .
b1001000000110010101010101010101 F
b100100000011001010101010101010100000000000000000000000000000111 T
b111 -
b111 E
b111 2"
#75980
0+
#76000
09
#76980
b110111 +"
b110000 ,"
b10010101010101010101000000000000 )"
b10011101 *"
b1101101 -"
b110 ."
1+
#77000
b1 !
b1 O
19
#77500
b1010 &"
b100 ]
b100 ~
0^
b110111111001101010101010101011 d
1_
b110111111001101010101010101011 f
b10101 7"
b11001010101010101010111001000000 H
b11001010101010101010111001000000 /"
b11001010101010101010111001000000 5"
1@
b11001000000110010101010101010101 .
b11001000000110010101010101010101 F
b1100100000011001010101010101010111001000000110010101010101010101 T
b11001000000110010101010101010101 -
b11001000000110010101010101010101 E
b11001000000110010101010101010101 2"
#77980
0+
#78000
09
#78980
b1101110 +"
b111111111111100101 ,"
b1010101010101010100000000000000 )"
b11000010 *"
b11011101 -"
b111 ."
1+
#79000
19
#79500
b10110111111001101010101010101010 N
b10101 6"
b1001000000110010101010101010101 f
0_
00"
b0 U
b10101 7"
b10101010101010010000001100101010 H
b10101010101010010000001100101010 /"
b10101010101010010000001100101010 5"
1@
b11000 1
b11000 G
b1100100000011001010101010101010101001000000110010101010101010101 T
b1001000000110010101010101010101 -
b1001000000110010101010101010101 E
b1001000000110010101010101010101 2"
#79980
0+
#80000
09
#80980
b11011101 +"
b101010000 ,"
b1010101010101010000000000000000 )"
b111111111110010101 *"
b110111011 -"
b1000 ."
1+
#81000
b10110111111001101010101010101010 !
b10110111111001101010101010101010 O
19
#81500
b11111111111111111111111000 N
1^
b11111111111111111111111001 f
b10101 6"
b111111111000000000000000 H
b111111111000000000000000 /"
b111111111000000000000000 5"
1@
b1100100000011001010101010101010111111100000000000000000000000111 T
b11111100000000000000000000000111 -
b11111100000000000000000000000111 E
b11111100000000000000000000000111 2"
#81980
0+
#82000
09
#82980
b110111011 +"
b111001100 ,"
b1010101010101000000000000000000 )"
b10101000001 *"
b1101110101 -"
b1001 ."
1+
#83000
b11111111111111111111111000 !
b11111111111111111111111000 O
19
#83500
b1001000000110010101010101010101 N
b1010 &"
b100 ]
b100 ~
1^
b10101 7"
b1101010100110010101010101010101 d
b1001000011110010101010101010101 f
10"
b10 U
b10101 6"
b11001010101010101010101001000011 H
b11001010101010101010101001000011 /"
b11001010101010101010101001000011 5"
1@
b11001 1
b11001 G
b1101010100110010101010101010101 .
b1101010100110010101010101010101 F
b110101010011001010101010101010101001000011110010101010101010101 T
b1001000011110010101010101010101 -
b1001000011110010101010101010101 E
b1001000011110010101010101010101 2"
#83980
0+
#84000
09
#84980
b1101110111 +"
b1000100 ,"
b1010101010100000000000000000000 )"
b11100110001 *"
b11011101101 -"
b1010 ."
1+
#85000
b1001000000110010101010101010101 !
b1001000000110010101010101010101 O
19
#85500
b1101010100110010101010101010101 N
0^
b1101010100110010101010101010101 f
1_
b10101 7"
b11001010101010101010101101010100 H
b11001010101010101010101101010100 /"
b11001010101010101010101101010100 5"
1@
b110101010011001010101010101010101101010100110010101010101010101 T
b1101010100110010101010101010101 -
b1101010100110010101010101010101 E
b1101010100110010101010101010101 2"
#85980
0+
#86000
09
#86980
b11011101110 +"
b111111001100110100 ,"
b1010101010000000000000000000000 )"
b100010001 *"
b110111011101 -"
b1011 ."
1+
#87000
b1101010100110010101010101010101 !
b1101010100110010101010101010101 O
19
#87500
b1101010111110010101010101010101 N
1^
b10101 6"
b1001000011110010101010101010101 f
0_
00"
b0 U
b10101 7"
b10101010101010010000111100101010 H
b10101010101010010000111100101010 /"
b10101010101010010000111100101010 5"
1@
b11010 1
b11010 G
b110101010011001010101010101010101001000011110010101010101010101 T
b1001000011110010101010101010101 -
b1001000011110010101010101010101 E
b1001000011110010101010101010101 2"
#87980
0+
#88000
09
#88980
b110111011100 +"
b111110100010001100 ,"
b1010101000000000000000000000000 )"
b111100110011010001 *"
b1101110111011 -"
b1100 ."
1+
#89000
b1101010111110010101010101010101 !
b1101010111110010101010101010101 O
19
#89500
b11111111111111111111111111111111 N
1^
b1 f
b10101 6"
b11111111111111111111111111111111 H
b11111111111111111111111111111111 /"
b11111111111111111111111111111111 5"
1@
b110101010011001010101010101010111111111111111111111111111111111 T
b11111111111111111111111111111111 -
b11111111111111111111111111111111 E
b11111111111111111111111111111111 2"
#89980
0+
#90000
09
#90980
b1101110111000 +"
b111101100110100100 ,"
b1010100000000000000000000000000 )"
b111010001000110001 *"
b11011101110011 -"
b1101 ."
1+
#91000
b11111111111111111111111111111111 !
b11111111111111111111111111111111 O
19
#91500
b100010111000000000000000000000 N
1^
b10101 7"
b1001000011110010101010101010101 f
10"
b10 U
b10101 6"
b11001010101010101010101001000011 H
b11001010101010101010101001000011 /"
b11001010101010101010101001000011 5"
1@
b11011 1
b11011 G
b110101010011001010101010101010101001000011110010101010101010101 T
b1001000011110010101010101010101 -
b1001000011110010101010101010101 E
b1001000011110010101010101010101 2"
#91980
0+
#92000
09
#92980
b11011101110000 +"
b111101010101110100 ,"
b1010000000000000000000000000000 )"
b110110011010010001 *"
b110111011100011 -"
b1110 ."
1+
#93000
b100010111000000000000000000000 !
b100010111000000000000000000000 O
19
#93500
b1101010100110010101010101010101 N
b0 f
b10101 7"
b0 H
b0 /"
b0 5"
1@
b110101010011001010101010101010100000000000000000000000000000000 T
b0 -
b0 E
b0 2"
#93980
0+
#94000
09
#94980
b110111011100001 +"
b11001110010100 ,"
b1000000000000000000000000000000 )"
b110101010111010001 *"
b1101110111000011 -"
b1111 ."
1+
#95000
b1101010100110010101010101010101 !
b1101010100110010101010101010101 O
19
#95500
b11011101000111111111111111111111 N
b10101 6"
b1001000011110010101010101010101 f
00"
b0 U
b10101 7"
b10101010101010010000111100101010 H
b10101010101010010000111100101010 /"
b10101010101010010000111100101010 5"
1@
b11100 1
b11100 G
b110101010011001010101010101010101001000011110010101010101010101 T
b1001000011110010101010101010101 -
b1001000011110010101010101010101 E
b1001000011110010101010101010101 2"
#95980
0+
#96000
09
#96980
1I
b0 +"
b0 ,"
b0 )"
b0 *"
b0 -"
b0 ."
1+
#97000
b11011101000111111111111111111111 !
b11011101000111111111111111111111 O
19
#97500
b10010101011001101010101010101010 N
b0 f
b10101 6"
b0 H
b0 /"
b0 5"
1@
b110101010011001010101010101010100000000000000000000000000000000 T
b0 -
b0 E
b0 2"
#97980
0+
#98000
09
#98980
0I
b1 +"
b10 ,"
b11 *"
b1 -"
b1 ."
b11001010101010101010100 )"
1+
#99000
b10010101011001101010101010101010 !
b10010101011001101010101010101010 O
19
#99980
0+
#100000
09
#100980
b11 +"
b11 ,"
b1100101010101010101010000 )"
b1000 *"
b101 -"
b10 ."
1+
#101000
19
