Prozessorentwurf/Verilog/Prozessor/Testbenches/dump.vcd
$date
	Mon Jul 17 19:49:43 2023
$end
$version
	Icarus Verilog
$end
$timescale
	1ns
$end
$scope module main_tb $end
$var wire 32 ! Ergebnis [31:0] $end
$var parameter 32 " DURATION $end
$var reg 6 # Add [5:0] $end
$var reg 6 $ Adds [5:0] $end
$var reg 6 % And [5:0] $end
$var reg 6 & Ce [5:0] $end
$var reg 6 ' Cg [5:0] $end
$var reg 6 ( Cge [5:0] $end
$var reg 6 ) Cl [5:0] $end
$var reg 6 * Cle [5:0] $end
$var reg 1 + Clock $end
$var reg 6 , Cne [5:0] $end
$var reg 32 - Daten1 [31:0] $end
$var reg 32 . Daten2 [31:0] $end
$var reg 6 / Div [5:0] $end
$var reg 6 0 Divs [5:0] $end
$var reg 6 1 FunktionsCode [5:0] $end
$var reg 6 2 Mod [5:0] $end
$var reg 6 3 Mods [5:0] $end
$var reg 6 4 Mul [5:0] $end
$var reg 6 5 Muls [5:0] $end
$var reg 6 6 Not [5:0] $end
$var reg 6 7 Or [5:0] $end
$var reg 1 8 Reset $end
$var reg 1 9 Schreibsignal $end
$var reg 6 : Sl [5:0] $end
$var reg 6 ; Slc [5:0] $end
$var reg 6 < Sqrt [5:0] $end
$var reg 6 = Sqrts [5:0] $end
$var reg 6 > Sr [5:0] $end
$var reg 6 ? Src [5:0] $end
$var reg 1 @ StartSignal $end
$var reg 6 A Sub [5:0] $end
$var reg 6 B Subs [5:0] $end
$var reg 6 C Xnor [5:0] $end
$var reg 6 D Xor [5:0] $end
$scope module Alu $end
$var wire 1 + Clock $end
$var wire 32 E Daten1 [31:0] $end
$var wire 32 F Daten2 [31:0] $end
$var wire 6 G FunktionsCode [5:0] $end
$var wire 1 8 Reset $end
$var wire 1 9 Schreibsignal $end
$var wire 1 @ StartSignal $end
$var wire 32 H ZyklischerSchieberErgebnis [31:0] $end
$var wire 1 I WurzelFertig $end
$var wire 32 J WurzelErgebnis [31:0] $end
$var wire 1 K DivisionInArbeit $end
$var wire 1 L DivisionFertig $end
$var wire 32 M DivisionErgebnis [31:0] $end
$var reg 1 N DivCyc $end
$var reg 1 O DivStb $end
$var reg 32 P EinfacheRechnungErgebnis [31:0] $end
$var reg 32 Q Ergebnis [31:0] $end
$var reg 32 R Radikand [31:0] $end
$scope module DivisionsModule $end
$var wire 1 + i_clk $end
$var wire 1 8 i_rst $end
$var wire 1 N i_wb4s_cyc $end
$var wire 64 S i_wb4s_data [63:0] $end
$var wire 1 O i_wb4s_stb $end
$var wire 2 T i_wb4s_tgc [1:0] $end
$var wire 1 L o_wb4s_ack $end
$var wire 32 U o_wb4s_data [31:0] $end
$var wire 1 K o_wb4s_stall $end
$var wire 1 V s_initiate $end
$var wire 1 W s_iterate $end
$var wire 64 X w_two_minus_divisor [63:0] $end
$var wire 32 Y w_result_mag [31:0] $end
$var wire 32 Z w_result [31:0] $end
$var wire 64 [ w_multiplier [63:0] $end
$var wire 64 \ w_lut_value [63:0] $end
$var wire 1 ] w_less_than $end
$var wire 1 ^ w_equal_factors $end
$var wire 1 _ w_divisor_zero $end
$var wire 1 ` w_divisor_is_one $end
$var wire 1 a w_divisor_is_neg_one $end
$var wire 64 b w_divisor_acc [63:0] $end
$var wire 32 c w_divisor [31:0] $end
$var wire 64 d w_dividend_acc [63:0] $end
$var wire 32 e w_dividend [31:0] $end
$var wire 1 f w_converged $end
$var wire 1 g w_ceil $end
$var parameter 32 h L_ARRAY_HIGH $end
$var parameter 32 i L_FACTOR1_LSB $end
$var parameter 32 j L_FACTOR1_MSB $end
$var parameter 32 k L_LUT_MSB $end
$var parameter 32 l L_MUL_FACTORS_MSB $end
$var parameter 32 m L_NINE_NIBLES $end
$var parameter 64 n L_NUMBER_TWO_EXT $end
$var parameter 32 o L_ONE_TENGTH $end
$var parameter 32 p L_PRODUCT_MSB $end
$var parameter 32 q L_QUO_LIMIT $end
$var parameter 32 r L_REM_LIMIT $end
$var parameter 32 s L_STEP_PRODUCT_LSB $end
$var parameter 32 t L_TWOS_LEADING_ZEROS $end
$var parameter 32 u P_GDIV_FACTORS_MSB $end
$var parameter 32 v P_GDIV_FRAC_LENGTH $end
$var parameter 32 w P_GDIV_ROUND_LVL $end
$var reg 32 x r_1step_result [31:0] $end
$var reg 1 y r_ack $end
$var reg 1 z r_calc_remainder $end
$var reg 8 { r_div_step [7:0] $end
$var reg 32 | r_divisor [31:0] $end
$var reg 32 } r_lut_value [31:0] $end
$var reg 1 ~ r_neg_result $end
$var reg 96 !" r_product0 [95:0] $end
$var reg 96 "" r_product1 [95:0] $end
$var reg 1 #" r_rem_zero $end
$var reg 1 $" r_stall $end
$var integer 32 %" iter [31:0] $end
$scope function F_ARRAY_HIGH $end
$upscope $end
$scope function F_EE_LUT $end
$upscope $end
$scope function F_TWO_EE $end
$upscope $end
$scope begin Dividen_Multiplication_Process $end
$upscope $end
$scope begin Divider_Accumulator_Process $end
$upscope $end
$scope begin Division_Step_Process $end
$upscope $end
$scope begin Divisor_Multiplication_Process $end
$upscope $end
$scope begin EE_LUT_Entry_Select $end
$upscope $end
$upscope $end
$scope module QuadratModul $end
$var wire 1 + Clock $end
$var wire 32 &" Num_in [31:0] $end
$var wire 1 8 Reset $end
$var reg 1 I Done $end
$var reg 32 '" Sq_root [31:0] $end
$var reg 32 (" a [31:0] $end
$var reg 18 )" left [17:0] $end
$var reg 16 *" q [15:0] $end
$var reg 18 +" r [17:0] $end
$var reg 18 ," right [17:0] $end
$var integer 32 -" i [31:0] $end
$upscope $end
$scope module Schieber $end
$var wire 32 ." Ergebnis [31:0] $end
$var wire 1 /" SchiebRechts $end
$var wire 5 0" Stellen [4:0] $end
$var wire 32 1" Zahl [31:0] $end
$var parameter 32 2" BREITE $end
$var parameter 32 3" LOG2BREITE $end
$var reg 32 4" hilfsRegister [31:0] $end
$scope begin $ivl_for_loop0 $end
$var integer 32 5" i [31:0] $end
$upscope $end
$scope begin $ivl_for_loop1 $end
$var integer 32 6" i [31:0] $end
$upscope $end
$upscope $end
$upscope $end
$upscope $end
$enddefinitions $end
$comment Show the parameter values. $end
$dumpall
b101 3"
b100000 2"
b11 w
b100000 v
b11111 u
b11110 t
b100000 s
b111 r
b101 q
b1011111 p
b11001100110011001100110011001 o
b1000000000000000000000000000000000 n
b111 m
b111111 l
b11111 k
b111111 j
b100000 i
b1001 h
b1010 "
$end
#0
$dumpvars
bx 6"
bx 5"
bx 4"
bx 1"
bx 0"
x/"
bx ."
b0 -"
b0 ,"
b0 +"
b0 *"
b0 )"
b0 ("
b0 '"
bx &"
bx %"
x$"
x#"
bx ""
bx !"
x~
b11001100110011001100110011001 }
bx |
bx {
xz
xy
bx x
xg
xf
bx e
bx d
bx c
bx b
xa
x`
x_
x^
x]
b11001100110011001100110011001 \
bx [
bx Z
bx Y
bx X
xW
0V
bx U
bx0 T
bx S
bx R
bx Q
bx P
0O
0N
bx M
xL
xK
b0 J
0I
bx H
bx G
bx F
bx E
b11011 D
b11100 C
b100001 B
b1 A
0@
b1001 ?
b111 >
b100101 =
b11 <
b1000 ;
b110 :
09
18
b11010 7
b11000 6
b100010 5
b10 4
b100100 3
b101 2
bx 1
b100011 0
b100 /
bx .
bx -
b10001 ,
0+
b10101 *
b10100 )
b10011 (
b10010 '
b10000 &
b11001 %
b100000 $
b0 #
bx !
$end
#980
bx0 {
0#"
0~
0z
b0 x
b0 |
0L
0y
0K
0W
0$"
1+
#1000
19
#1500
b10000000010000001111111111111111 P
0]
b100 \
b100 }
0`
0a
b1010 5"
b1010101010101010101010101010101 H
b1010101010101010101010101010101 ."
b1010101010101010101010101010101 4"
b101010111010111010101010101010 c
0_
0^
b1010101010101010101010101010101 e
0/"
b0 T
b1010 0"
b0 6"
b1010 %"
1@
b0 1
b0 G
b101010111010111010101010101010 .
b101010111010111010101010101010 F
b10101011101011101010101010101001010101010101010101010101010101 S
b1010101010101010101010101010101 -
b1010101010101010101010101010101 E
b1010101010101010101010101010101 1"
08
#1980
0+
#2000
09
#2980
0f
b1 {
b0x *"
bx +"
b0xx )"
b1 ,"
b1 -"
bx00 ("
1+
#3000
b10000000010000001111111111111111 !
b10000000010000001111111111111111 Q
19
#3500
b101010011010011010101010101011 P
b1010 6"
b1010101010101010101010101010101 H
b1010101010101010101010101010101 ."
b1010101010101010101010101010101 4"
1/"
b10 T
1@
b1 1
b1 G
#3980
0+
#4000
09
#4980
b0xx *"
bx0000 ("
bx )"
b0xx1 ,"
b10 -"
1+
#5000
b101010011010011010101010101011 !
b101010011010011010101010101011 Q
19
#5500
b111000111000101001110001110010 P
b1010 %"
b1101000110110111000 \
b1101000110110111000 }
b1010 5"
b10101010101010 c
b10101010101010101 e
0/"
b0 T
b1010 6"
b101010101010101010000000000 H
b101010101010101010000000000 ."
b101010101010101010000000000 4"
1@
b10 1
b10 G
b10101010101010 .
b10101010101010 F
b1010101010101000000000000000010101010101010101 S
b10101010101010101 -
b10101010101010101 E
b10101010101010101 1"
#5980
0+
#6000
09
#6980
b0xxx *"
bx000000 ("
b0xxx1 ,"
b11 -"
1+
#7000
b111000111000101001110001110010 !
b111000111000101001110001110010 Q
19
#7500
b111111111001101010101010101011 e
b1010 5"
b1100101010101010101011100000000 H
b1100101010101010101011100000000 ."
b1100101010101010101011100000000 4"
b100 1
b100 G
b1010101010101011000000000110010101010101010101 S
b11000000000110010101010101010101 -
b11000000000110010101010101010101 E
b11000000000110010101010101010101 1"
#7980
0+
#8000
09
#8980
b0xxxx *"
bx00000000 ("
b0xxxx1 ,"
b100 -"
1+
#9000
bx !
bx Q
19
#9500
0@
#9980
0+
#10000
09
#10980
b0xxxxx *"
bx0000000000 ("
b0xxxxx1 ,"
b101 -"
1+
#11000
19
#11980
0+
#12000
09
#12980
b0xxxxxx *"
bx000000000000 ("
b0xxxxxx1 ,"
b110 -"
1+
#13000
19
#13980
0+
#14000
09
#14980
b0xxxxxxx *"
bx00000000000000 ("
b0xxxxxxx1 ,"
b111 -"
1+
#15000
19
#15980
0+
#16000
09
#16980
b0xxxxxxxx *"
bx0000000000000000 ("
b0xxxxxxxx1 ,"
b1000 -"
1+
#17000
19
#17980
0+
#18000
09
#18980
b0xxxxxxxxx *"
bx000000000000000000 ("
b0xxxxxxxxx1 ,"
b1001 -"
1+
#19000
19
#19980
0+
#20000
09
#20980
b0xxxxxxxxxx *"
bx00000000000000000000 ("
b0xxxxxxxxxx1 ,"
b1010 -"
1+
#21000
19
#21980
0+
#22000
09
#22980
b0xxxxxxxxxxx *"
bx0000000000000000000000 ("
b0xxxxxxxxxxx1 ,"
b1011 -"
1+
#23000
19
#23500
b0 M
b0 U
b0 Z
b1010101010101000000000000000000000000000000000 b
b100000000011001010101010101010100000000000000000000000000000000 d
b1101000110110111000 [
1V
1O
1N
b1010 6"
b1000000000110010101010101010101 e
1/"
b10 T
b1010 5"
b1010101010100000000011001010101 H
b1010101010100000000011001010101 ."
b1010101010100000000011001010101 4"
1@
b101 1
b101 G
b1010101010101001000000000110010101010101010101 S
b1000000000110010101010101010101 -
b1000000000110010101010101010101 E
b1000000000110010101010101010101 1"
#23980
0+
#24000
09
#24980
b11101000011001011011001111001111 X
b11010010000010100 Y
0g
b10001011110011010010011000011000000000000000000000000000000000000 ""
b110100100000101000000011000110011001001100001100000000000000000000000000000000000 !"
b10101010101010 |
1z
1K
1W
1$"
b11010010000010100 M
b11010010000010100 U
b11010010000010100 Z
b100010111100110100100110000110000 b
b1101001000001010000000110001100110010011000011000 d
b11101000011001011011001111001111 [
0V
0O
b0xxxxxxxxxxxx *"
bx000000000000000000000000 ("
b0xxxxxxxxxxxx1 ,"
b1100 -"
1+
#25000
b11010010000010100 !
b11010010000010100 Q
19
#25500
0@
#25980
0+
#26000
09
#26980
b10111110101011001 M
b10111110101011001 U
b10111110101011001 Z
b100000010001011010001011010110001 [
b1011111010101100100001000100100100111100100111010 d
b11111101110100101110100101001110 b
b100000010001011010001011010110001 X
b10111110101011001 Y
b1111110111010010111010010100111010000111111110010010101011010000 ""
b101111101010110010000100010010010011110010011101010001110011101101001010101101000 !"
b10 {
b0xxxxxxxxxxxxx *"
bx00000000000000000000000000 ("
b0xxxxxxxxxxxxx1 ,"
b1101 -"
1+
#27000
b10111110101011001 !
b10111110101011001 Q
19
#27980
0+
#28000
09
#28980
b11000000010010111 M
b11000000010010111 U
b11000000010010111 Z
b100000000000001001011110001001100 [
b1100000001001011011100101000101110111000100110111 d
b11111111111110110100001110110011 b
b100000000000001001011110001001100 X
b11000000010010111 Y
1g
b1111111111111011010000111011001100111101100101100000001011101110 ""
b110000000100101101110010100010111011100010011011101000110111000101100110100011010 !"
b100 {
b0xxxxxxxxxxxxxx *"
bx0000000000000000000000000000 ("
b0xxxxxxxxxxxxxx1 ,"
b1110 -"
1+
#29000
b11000000010010111 !
b11000000010010111 Q
19
#29980
0+
#30000
09
#30980
b11000000010011110 M
b11000000010011110 U
b11000000010011110 Z
b100000000000000000000000000010111 [
b1100000001001111000000010010101000000001010011101 d
b11111111111111111111111111101000 b
b100000000000000000000000000010111 X
b11000000010011110 Y
0g
b1111111111111111111111111110100010010011000110111000110100100100 ""
b110000000100111100000001001010100000000101001110111111110111101100000000001010100 !"
b1000 {
b0xxxxxxxxxxxxxxx *"
bx000000000000000000000000000000 ("
b0xxxxxxxxxxxxxxx1 ,"
b1111 -"
1+
#31000
b11000000010011110 !
b11000000010011110 Q
19
#31980
0+
#32000
09
#32980
b100000000000000000000000000000001 [
b1100000001001111000000010011101101001000011001111 d
b11111111111111111111111111111110 b
b100000000000000000000000000000001 X
b1111111111111111111111111111111011111111111111111111110111011000 ""
b110000000100111100000001001110110100100001100111100110101100011000011110000011011 !"
b10000 {
b0xxxxxxxxxxxxxxxx J
b0xxxxxxxxxxxxxxxx '"
1I
b0 +"
b0 )"
b0 *"
b0 ("
b0 ,"
b0 -"
1+
#33000
19
#33980
0+
#34000
09
#34980
b1100000001001111000000010011110000001000101101101 d
b1111111111111111111111111111111011111111111111111111111111111110 ""
b110000000100111100000001001111000000100010110110100000010011101101001000011001111 !"
b100000 {
0I
b0x *"
bx +"
b0xx )"
b1 ,"
b1 -"
bx00 ("
1+
#35000
19
#35980
0+
#36000
09
#36980
b1100000001001111000000010011110011001001000001011 d
b110000000100111100000001001111001100100100000101100000010011110000001000101101101 !"
b1000000 {
b0xx *"
bx0000 ("
bx )"
b0xx1 ,"
b10 -"
1+
#37000
19
#37980
0+
#38000
09
#38980
b1010101010101000000000000000000000000000000000 [
b10011110011001001000001011 d
1f
b110000000100111100000001001111011000100101010100100000010011110011001001000001011 !"
b10000000 {
b0xxx *"
bx000000 ("
b0xxx1 ,"
b11 -"
1+
#39000
19
#39980
0+
#40000
09
#40980
b1101001 M
b1101001 U
b1101001 Z
b1111111111111111110101010101100000000000000000000101010101010011 [
b110100110010110101100001100100101001110 d
b1010101010100111111111111111111010101010101100 b
b1111111111111111110101010101100000000000000000000101010101010011 X
b1101001 Y
0f
b101010101010011111111111111111101010101010110000000000000000000000000000000000 ""
b11010011001011010110000110010010100111000000000000000000000000000000000 !"
b0 {
1L
1y
0K
0W
0$"
b0xxxx *"
bx00000000 ("
b0xxxx1 ,"
b100 -"
1+
#41000
b1101001 !
b1101001 Q
19
#41980
0+
#42000
09
#42980
b1 {
0z
b0 |
0L
0y
0N
b0xxxxx *"
bx0000000000 ("
b0xxxxx1 ,"
b101 -"
1+
#43000
19
#43500
b11000000000110010101010101010101 R
b11000000000110010101010101010101 &"
b111111111001101010101010101011 e
b1010 6"
b1010101011100000000011001010101 H
b1010101011100000000011001010101 ."
b1010101011100000000011001010101 4"
1@
b11 1
b11 G
b1010101010101011000000000110010101010101010101 S
b11000000000110010101010101010101 -
b11000000000110010101010101010101 E
b11000000000110010101010101010101 1"
#43980
0+
#44000
09
#44980
b0xxxxxx *"
bx000000000000 ("
b0xxxxxx1 ,"
b110 -"
1+
#45000
b0xxxxxxxxxxxxxxxx !
b0xxxxxxxxxxxxxxxx Q
19
#45980
0+
#46000
09
#46980
b0xxxxxxx *"
bx00000000000000 ("
b0xxxxxxx1 ,"
b111 -"
1+
#47000
19
#47980
0+
#48000
09
#48980
b0xxxxxxxx *"
bx0000000000000000 ("
b0xxxxxxxx1 ,"
b1000 -"
1+
#49000
19
#49980
0+
#50000
09
#50980
b0xxxxxxxxx *"
bx000000000000000000 ("
b0xxxxxxxxx1 ,"
b1001 -"
1+
#51000
19
#51980
0+
#52000
09
#52980
b0xxxxxxxxxx *"
bx00000000000000000000 ("
b0xxxxxxxxxx1 ,"
b1010 -"
1+
#53000
19
#53980
0+
#54000
09
#54980
b0xxxxxxxxxxx *"
bx0000000000000000000000 ("
b0xxxxxxxxxxx1 ,"
b1011 -"
1+
#55000
19
#55980
0+
#56000
09
#56980
b0xxxxxxxxxxxx *"
bx000000000000000000000000 ("
b0xxxxxxxxxxxx1 ,"
b1100 -"
1+
#57000
19
#57980
0+
#58000
09
#58980
b0xxxxxxxxxxxxx *"
bx00000000000000000000000000 ("
b0xxxxxxxxxxxxx1 ,"
b1101 -"
1+
#59000
19
#59980
0+
#60000
09
#60980
b0xxxxxxxxxxxxxx *"
bx0000000000000000000000000000 ("
b0xxxxxxxxxxxxxx1 ,"
b1110 -"
1+
#61000
19
#61980
0+
#62000
09
#62980
b0xxxxxxxxxxxxxxx *"
bx000000000000000000000000000000 ("
b0xxxxxxxxxxxxxxx1 ,"
b1111 -"
1+
#63000
19
#63980
0+
#64000
09
#64980
1I
b0 +"
b0 )"
b0 *"
b0 ("
b0 ,"
b0 -"
1+
#65000
19
#65980
0+
#66000
09
#66980
0I
b1 *"
b10 +"
b11 )"
b1 ,"
b1 -"
b11001010101010101010100 ("
1+
#67000
19
#67980
0+
#68000
09
#68980
b11 *"
b11 +"
b1100101010101010101010000 ("
b1000 )"
b101 ,"
b10 -"
1+
#69000
19
#69980
0+
#70000
09
#70980
b110 *"
b111111111111111111 +"
b110010101010101010101000000 ("
b1100 )"
b1101 ,"
b11 -"
1+
#71000
19
#71980
0+
#72000
09
#72980
b1101 *"
b10111 +"
b11001010101010101010100000000 ("
b111111111111111100 )"
b11011 ,"
b100 -"
1+
#73000
19
#73980
0+
#74000
09
#74980
b11011 *"
b100111 +"
b1100101010101010101010000000000 ("
b1011100 )"
b110101 ,"
b101 -"
1+
#75000
19
#75500
b1100101010101010101010000000 P
b1010 %"
b11001100110011001100110011001 \
b11001100110011001100110011001 }
b111 5"
b111 c
b110111111001101010101010101011 e
0/"
b0 T
b111 0"
b1010 6"
b1100101010101010101011100100 H
b1100101010101010101011100100 ."
b1100101010101010101011100100 4"
1@
b110 1
b110 G
b111 .
b111 F
b11111001000000110010101010101010101 S
b11001000000110010101010101010101 -
b11001000000110010101010101010101 E
b11001000000110010101010101010101 1"
#75980
0+
#76000
09
#76980
b110111 *"
b110000 +"
b10010101010101010101000000000000 ("
b10011101 )"
b1101101 ,"
b110 -"
1+
#77000
b1100101010101010101010000000 !
b1100101010101010101010000000 Q
19
#77500
b1100100000011001010101010 P
b111 6"
b10101011100100000011001010101010 H
b10101011100100000011001010101010 ."
b10101011100100000011001010101010 4"
1/"
b10 T
1@
b111 1
b111 G
#77980
0+
#78000
09
#78980
b1101110 *"
b111111111111100101 +"
b1010101010101010100000000000000 ("
b11000010 )"
b11011101 ,"
b111 -"
1+
#79000
b1100100000011001010101010 !
b1100100000011001010101010 Q
19
#79500
b111 5"
b1100101010101010101011100100 H
b1100101010101010101011100100 ."
b1100101010101010101011100100 4"
0/"
b0 T
1@
b1000 1
b1000 G
#79980
0+
#80000
09
#80980
b11011101 *"
b101010000 +"
b1010101010101010000000000000000 ("
b111111111110010101 )"
b110111011 ,"
b1000 -"
1+
#81000
b1100101010101010101011100100 !
b1100101010101010101011100100 Q
19
#81500
b111 6"
b10101011100100000011001010101010 H
b10101011100100000011001010101010 ."
b10101011100100000011001010101010 4"
1/"
b10 T
1@
b1001 1
b1001 G
#81980
0+
#82000
09
#82980
b110111011 *"
b111001100 +"
b1010101010101000000000000000000 ("
b10101000001 )"
b1101110101 ,"
b1001 -"
1+
#83000
b10101011100100000011001010101010 !
b10101011100100000011001010101010 Q
19
#83500
b0 P
b111 5"
b1100101010101010101011100100 H
b1100101010101010101011100100 ."
b1100101010101010101011100100 4"
0/"
b0 T
1@
b10000 1
b10000 G
#83980
0+
#84000
09
#84980
b1101110111 *"
b1000100 +"
b1010101010100000000000000000000 ("
b11100110001 )"
b11011101101 ,"
b1010 -"
1+
#85000
b0 !
b0 Q
19
#85500
b1 P
0]
b100 \
b100 }
b1010 %"
b10101 5"
b10101010101110010000001100101010 H
b10101010101110010000001100101010 ."
b10101010101110010000001100101010 4"
b110111111001101010101010101011 c
1^
b10101 0"
1@
b1100100000011001010101010101010111001000000110010101010101010101 S
b11001000000110010101010101010101 .
b11001000000110010101010101010101 F
#85980
0+
#86000
09
#86980
b11011101110 *"
b111111001100110100 +"
b1010101010000000000000000000000 ("
b100010001 )"
b110111011101 ,"
b1011 -"
1+
#87000
b1 !
b1 Q
19
#87500
0]
b1010 %"
b11001100110011001100110011001 \
b11001100110011001100110011001 }
b111 6"
b10101011100100000011001010101010 H
b10101011100100000011001010101010 ."
b10101011100100000011001010101010 4"
b111 c
0^
1/"
b10 T
b111 0"
1@
b10001 1
b10001 G
b11111001000000110010101010101010101 S
b111 .
b111 F
#87980
0+
#88000
09
#88980
b110111011100 *"
b111110100010001100 +"
b1010101000000000000000000000000 ("
b111100110011010001 )"
b1101110111011 ,"
b1100 -"
1+
#89000
19
#89500
b0 P
0]
b100 \
b100 }
b1010 %"
b10101 6"
b11001010101010101010111001000000 H
b11001010101010101010111001000000 ."
b11001010101010101010111001000000 4"
b110111111001101010101010101011 c
1^
b10101 0"
1@
b1100100000011001010101010101010111001000000110010101010101010101 S
b11001000000110010101010101010101 .
b11001000000110010101010101010101 F
#89980
0+
#90000
09
#90980
b1101110111000 *"
b111101100110100100 +"
b1010100000000000000000000000000 ("
b111010001000110001 )"
b11011101110011 ,"
b1101 -"
1+
#91000
b0 !
b0 Q
19
#91500
b1 P
0]
b1010 %"
b11001100110011001100110011001 \
b11001100110011001100110011001 }
b111 5"
b111 c
b1001000000110010101010101010101 e
0^
0/"
b0 T
b111 0"
b10101 6"
b1100101010101010101010100100 H
b1100101010101010101010100100 ."
b1100101010101010101010100100 4"
1@
b10010 1
b10010 G
b111 .
b111 F
b11101001000000110010101010101010101 S
b1001000000110010101010101010101 -
b1001000000110010101010101010101 E
b1001000000110010101010101010101 1"
#91980
0+
#92000
09
#92980
b11011101110000 *"
b111101010101110100 +"
b1010000000000000000000000000000 ("
b110110011010010001 )"
b110111011100011 ,"
b1110 -"
1+
#93000
b1 !
b1 Q
19
#93500
b0 P
1]
b100 \
b100 }
b1010 %"
b1001000000110010101010101010101 c
b111 e
b10101 0"
b10101 5"
b111000000000000000000000 H
b111000000000000000000000 ."
b111000000000000000000000 4"
1@
b1001000000110010101010101010101 .
b1001000000110010101010101010101 F
b100100000011001010101010101010100000000000000000000000000000111 S
b111 -
b111 E
b111 1"
#93980
0+
#94000
09
#94980
b110111011100001 *"
b11001110010100 +"
b1000000000000000000000000000000 ("
b110101010111010001 )"
b1101110111000011 ,"
b1111 -"
1+
#95000
b0 !
b0 Q
19
#95500
b1010 %"
b100 \
b100 }
0]
b110111111001101010101010101011 c
1^
b110111111001101010101010101011 e
b10101 5"
b10101010101110010000001100101010 H
b10101010101110010000001100101010 ."
b10101010101110010000001100101010 4"
1@
b11001000000110010101010101010101 .
b11001000000110010101010101010101 F
b1100100000011001010101010101010111001000000110010101010101010101 S
b11001000000110010101010101010101 -
b11001000000110010101010101010101 E
b11001000000110010101010101010101 1"
#95980
0+
#96000
09
#96980
b1101110111000010 J
b1101110111000010 '"
1I
b0 *"
b0 +"
b0 ("
b0 )"
b0 ,"
b0 -"
1+
#97000
19
#97500
b1 P
0]
b1010 %"
b11001100110011001100110011001 \
b11001100110011001100110011001 }
b111 6"
b111 c
b1001000000110010101010101010101 e
0^
1/"
b10 T
b111 0"
b10101 5"
b10101010100100000011001010101010 H
b10101010100100000011001010101010 ."
b10101010100100000011001010101010 4"
1@
b10011 1
b10011 G
b111 .
b111 F
b11101001000000110010101010101010101 S
b1001000000110010101010101010101 -
b1001000000110010101010101010101 E
b1001000000110010101010101010101 1"
#97980
0+
#98000
09
#98980
0I
b1 *"
b10 +"
b11 )"
b1 ,"
b1 -"
b11001010101010101010100 ("
1+
#99000
b1 !
b1 Q
19
#99500
b0 P
1]
b100 \
b100 }
b1010 %"
b1001000000110010101010101010101 c
b111 e
b10101 0"
b10101 6"
b11100000000000 H
b11100000000000 ."
b11100000000000 4"
1@
b1001000000110010101010101010101 .
b1001000000110010101010101010101 F
b100100000011001010101010101010100000000000000000000000000000111 S
b111 -
b111 E
b111 1"
#99980
0+
#100000
09
#100980
b11 *"
b11 +"
b1100101010101010101010000 ("
b1000 )"
b101 ,"
b10 -"
1+
#101000
b0 !
b0 Q
19
#101500
b1 P
b1010 %"
b100 \
b100 }
0]
b110111111001101010101010101011 c
1^
b110111111001101010101010101011 e
b10101 6"
b11001010101010101010111001000000 H
b11001010101010101010111001000000 ."
b11001010101010101010111001000000 4"
1@
b11001000000110010101010101010101 .
b11001000000110010101010101010101 F
b1100100000011001010101010101010111001000000110010101010101010101 S
b11001000000110010101010101010101 -
b11001000000110010101010101010101 E
b11001000000110010101010101010101 1"
#101980
0+
#102000
09
#102980
b110 *"
b111111111111111111 +"
b110010101010101010101000000 ("
b1100 )"
b1101 ,"
b11 -"
1+
#103000
b1 !
b1 Q
19
#103500
b0 P
0]
b1010 %"
b11001100110011001100110011001 \
b11001100110011001100110011001 }
b111 5"
b111 c
b1001000000110010101010101010101 e
0^
0/"
b0 T
b111 0"
b10101 6"
b1100101010101010101010100100 H
b1100101010101010101010100100 ."
b1100101010101010101010100100 4"
1@
b10100 1
b10100 G
b111 .
b111 F
b11101001000000110010101010101010101 S
b1001000000110010101010101010101 -
b1001000000110010101010101010101 E
b1001000000110010101010101010101 1"
#103980
0+
#104000
09
#104980
b1101 *"
b10111 +"
b11001010101010101010100000000 ("
b111111111111111100 )"
b11011 ,"
b100 -"
1+
#105000
b0 !
b0 Q
19
#105500
b1 P
1]
b100 \
b100 }
b1010 %"
b1001000000110010101010101010101 c
b111 e
b10101 0"
b10101 5"
b111000000000000000000000 H
b111000000000000000000000 ."
b111000000000000000000000 4"
1@
b1001000000110010101010101010101 .
b1001000000110010101010101010101 F
b100100000011001010101010101010100000000000000000000000000000111 S
b111 -
b111 E
b111 1"
#105980
0+
#106000
09
#106980
b11011 *"
b100111 +"
b1100101010101010101010000000000 ("
b1011100 )"
b110101 ,"
b101 -"
1+
#107000
b1 !
b1 Q
19
#107500
b0 P
b1010 %"
b100 \
b100 }
0]
b110111111001101010101010101011 c
1^
b110111111001101010101010101011 e
b10101 5"
b10101010101110010000001100101010 H
b10101010101110010000001100101010 ."
b10101010101110010000001100101010 4"
1@
b11001000000110010101010101010101 .
b11001000000110010101010101010101 F
b1100100000011001010101010101010111001000000110010101010101010101 S
b11001000000110010101010101010101 -
b11001000000110010101010101010101 E
b11001000000110010101010101010101 1"
#107980
0+
#108000
09
#108980
b110111 *"
b110000 +"
b10010101010101010101000000000000 ("
b10011101 )"
b1101101 ,"
b110 -"
1+
#109000
b0 !
b0 Q
19
#109500
0]
b1010 %"
b11001100110011001100110011001 \
b11001100110011001100110011001 }
b111 6"
b111 c
b1001000000110010101010101010101 e
0^
1/"
b10 T
b111 0"
b10101 5"
b10101010100100000011001010101010 H
b10101010100100000011001010101010 ."
b10101010100100000011001010101010 4"
1@
b10101 1
b10101 G
b111 .
b111 F
b11101001000000110010101010101010101 S
b1001000000110010101010101010101 -
b1001000000110010101010101010101 E
b1001000000110010101010101010101 1"
#109980
0+
#110000
09
#110980
b1101110 *"
b111111111111100101 +"
b1010101010101010100000000000000 ("
b11000010 )"
b11011101 ,"
b111 -"
1+
#111000
19
#111500
b1 P
1]
b100 \
b100 }
b1010 %"
b1001000000110010101010101010101 c
b111 e
b10101 0"
b10101 6"
b11100000000000 H
b11100000000000 ."
b11100000000000 4"
1@
b1001000000110010101010101010101 .
b1001000000110010101010101010101 F
b100100000011001010101010101010100000000000000000000000000000111 S
b111 -
b111 E
b111 1"
#111980
0+
#112000
09
#112980
b11011101 *"
b101010000 +"
b1010101010101010000000000000000 ("
b111111111110010101 )"
b110111011 ,"
b1000 -"
1+
#113000
b1 !
b1 Q
19
#113500
b1010 %"
b100 \
b100 }
0]
b110111111001101010101010101011 c
1^
b110111111001101010101010101011 e
b10101 6"
b11001010101010101010111001000000 H
b11001010101010101010111001000000 ."
b11001010101010101010111001000000 4"
1@
b11001000000110010101010101010101 .
b11001000000110010101010101010101 F
b1100100000011001010101010101010111001000000110010101010101010101 S
b11001000000110010101010101010101 -
b11001000000110010101010101010101 E
b11001000000110010101010101010101 1"
#113980
0+
#114000
09
#114980
b110111011 *"
b111001100 +"
b1010101010101000000000000000000 ("
b10101000001 )"
b1101110101 ,"
b1001 -"
1+
#115000
19
#115500
b10110111111001101010101010101010 P
b10101 5"
b1001000000110010101010101010101 e
0^
0/"
b0 T
b10101 6"
b10101010101010010000001100101010 H
b10101010101010010000001100101010 ."
b10101010101010010000001100101010 4"
1@
b11000 1
b11000 G
b1100100000011001010101010101010101001000000110010101010101010101 S
b1001000000110010101010101010101 -
b1001000000110010101010101010101 E
b1001000000110010101010101010101 1"
#115980
0+
#116000
09
#116980
b1101110111 *"
b1000100 +"
b1010101010100000000000000000000 ("
b11100110001 )"
b11011101101 ,"
b1010 -"
1+
